<svg width="160" height="20" viewBox="0 0 160 20" fill="none" xmlns="http://www.w3.org/2000/svg">
<g clip-path="url(#clip0)">
<path d="M50.6296 10.8108C50.4988 10.5405 50.2371 10.1351 49.9755 10C49.7138 9.72973 49.3213 9.45946 49.0597 9.32432C48.6672 9.18919 48.2747 8.91892 47.8823 8.78378C47.3589 8.51351 46.9665 8.37838 46.7048 8.24324C46.4432 8.10811 46.4432 7.83784 46.4432 7.7027C46.4432 7.56757 46.574 7.43243 46.7048 7.2973C46.8356 7.16216 47.0973 7.02703 47.359 7.02703C47.7514 7.02703 48.1439 7.02703 48.5364 7.16216C48.9289 7.2973 49.3213 7.2973 49.7138 7.43243C49.8446 7.43243 49.9755 7.43243 49.9755 7.43243C49.9755 7.43243 50.1063 7.2973 50.1063 7.16216L50.4988 5.94595C50.4988 5.81081 50.4988 5.67568 50.4988 5.67568C50.4988 5.67568 50.3679 5.54054 50.2371 5.54054C49.8446 5.27027 49.3213 5.13514 48.798 5.13514C48.2747 5 47.7514 5 47.2281 5C46.7048 5 46.1815 5.13514 45.6582 5.27027C45.2657 5.40541 44.8733 5.67568 44.6116 5.94595C44.35 6.21622 44.0883 6.48649 43.9575 6.89189C43.8267 7.2973 43.6958 7.56757 43.6958 7.97297C43.6958 8.37838 43.6958 8.64865 43.8267 8.91892C44.0883 9.05405 44.2191 9.32432 44.4808 9.45946C44.7424 9.72973 45.0041 9.86487 45.3966 10.1351C45.789 10.2703 46.1815 10.5405 46.574 10.6757C47.0973 10.9459 47.6206 11.0811 47.7514 11.2162C48.0131 11.3514 48.1439 11.6216 48.1439 11.8919C48.1439 12.1622 48.0131 12.2973 47.8823 12.4324C47.7514 12.5676 47.359 12.7027 46.9665 12.7027C46.8356 12.7027 46.574 12.7027 46.3123 12.7027C46.0507 12.7027 45.789 12.5676 45.5274 12.5676C45.2657 12.5676 45.0041 12.4324 44.7424 12.2973C44.7424 12.1622 44.6116 12.1622 44.35 12.027C44.2191 12.027 44.0883 11.8919 44.0883 12.027C44.0883 12.027 43.9575 12.1622 43.9575 12.2973L43.4342 13.5135C43.4342 13.6486 43.3034 13.7838 43.4342 13.7838L43.565 13.9189C44.0883 14.1892 44.6116 14.4595 45.3966 14.5946C46.0507 14.7297 46.7048 14.8649 47.359 14.8649C48.4056 14.8649 49.3213 14.5946 49.9755 14.1892C50.6296 13.6486 51.0221 12.973 51.0221 12.027C50.8912 11.4865 50.7604 11.0811 50.6296 10.8108ZM38.9861 7.16216C39.2477 7.2973 39.3786 7.43243 39.5094 7.56757C39.6402 7.7027 39.7711 7.97297 39.7711 8.10811C39.7711 8.37838 39.9019 8.64865 39.9019 8.91892H36.6312C36.6312 8.37838 36.8929 7.97297 37.1545 7.56757C37.4162 7.16216 37.8087 7.02703 38.332 7.02703C38.4628 7.02703 38.7244 7.16216 38.9861 7.16216ZM36.3696 5.27027C35.8463 5.54054 35.323 5.81081 35.0613 6.21622C34.6688 6.62162 34.4072 7.16216 34.1455 7.83784C33.8839 8.51351 33.8839 9.18919 33.8839 10C33.8839 11.7568 34.2764 12.973 34.9305 13.7838C35.7155 14.5946 36.7621 15 38.332 15C38.8553 15 39.3786 15 39.9019 14.8649C40.4252 14.7297 40.9485 14.5946 41.4718 14.1892C41.6026 14.1892 41.6026 14.0541 41.6026 14.0541C41.6026 14.0541 41.6026 13.9189 41.6026 13.7838L41.0793 12.4324C40.9485 12.1622 40.9485 12.1622 40.8177 12.1622C40.8177 12.1622 40.6868 12.1622 40.556 12.1622C40.2944 12.2973 39.9019 12.4324 39.5094 12.4324C39.1169 12.5676 38.8553 12.5676 38.4628 12.5676C38.2011 12.5676 37.9395 12.5676 37.6778 12.4324C37.4162 12.4324 37.1545 12.2973 37.0237 12.1622C36.8929 12.027 36.6312 11.7568 36.6312 11.4865C36.5004 11.2162 36.5004 10.9459 36.5004 10.5405H40.9485C41.341 10.5405 41.7334 10.4054 41.8643 10.1351C42.1259 9.86487 42.2567 9.45946 42.2567 8.78378C42.2567 7.43243 41.8643 6.48649 41.2101 5.67568C40.556 5 39.5094 4.5946 38.0703 4.5946C37.4162 4.86487 36.8929 5 36.3696 5.27027ZM20.4088 14.3243V7.16216C20.5397 7.16216 20.8013 7.16216 21.063 7.02703C21.3246 7.02703 21.4554 7.02703 21.5863 7.02703C21.9787 7.02703 22.3712 7.02703 22.6329 7.16216C22.8945 7.2973 23.1562 7.43243 23.287 7.56757C23.4178 7.7027 23.5486 7.97297 23.5486 8.24324C23.5486 8.64865 23.5486 9.05405 23.5486 9.45946V14.3243C23.5486 14.4595 23.5487 14.5946 23.6795 14.5946C23.6795 14.5946 23.8103 14.5946 23.9411 14.5946H25.7727C25.9035 14.5946 26.0343 14.5946 26.0343 14.5946C26.0343 14.5946 26.1652 14.4595 26.1652 14.3243V9.45946C26.1652 9.05405 26.1652 8.64865 26.1652 8.37838C26.1652 7.97297 26.0343 7.7027 25.9035 7.43243C26.0343 7.2973 26.296 7.2973 26.6885 7.16216C26.9501 7.16216 27.3426 7.02703 27.4734 7.02703C28.2584 7.02703 28.7817 7.2973 29.0433 7.7027C29.305 8.10811 29.4358 8.78378 29.4358 9.59459V14.3243C29.4358 14.4595 29.4358 14.5946 29.5666 14.5946C29.5666 14.5946 29.6975 14.5946 29.8283 14.5946H31.6599C31.7907 14.5946 31.9215 14.5946 31.9215 14.5946C31.9215 14.5946 32.0523 14.4595 32.0523 14.3243V9.32432C32.0523 8.64865 31.9215 8.10811 31.7907 7.56757C31.6598 7.02703 31.3982 6.48649 31.0057 6.08108C30.6132 5.67568 30.2208 5.40541 29.6975 5.13514C29.1742 4.86487 28.52 4.86487 27.7351 4.86487C27.2118 4.86487 26.5576 5 26.0343 5.13514C25.511 5.27027 24.9877 5.54054 24.5953 5.81081C24.2028 5.54054 23.6795 5.27027 23.1562 5.13514C22.6329 5 21.9787 5 21.3246 5C21.1938 5 20.9321 5 20.6705 5C20.4088 5 20.1472 5 20.0164 5C19.7547 5 19.6239 5 19.3622 5C19.2314 5 18.9697 5 18.9697 5C18.4464 5.13514 18.1848 5.27027 18.054 5.54054C17.9231 5.81081 17.9231 6.08108 17.9231 6.48649V14.1892C17.9231 14.3243 17.9231 14.4595 18.054 14.4595C18.054 14.4595 18.1848 14.4595 18.3156 14.4595H20.1472C20.278 14.4595 20.4088 14.4595 20.4088 14.4595C20.4088 14.5946 20.4088 14.4595 20.4088 14.3243ZM15.4374 5.40541C15.4374 5.27027 15.4374 5.13514 15.3066 5.13514C15.3066 5.13514 15.1758 5.13514 15.045 5.13514H13.2134C13.0826 5.13514 12.9518 5.13514 12.9518 5.13514C12.9518 5.13514 12.8209 5.27027 12.8209 5.40541V14.3243C12.8209 14.4595 12.8209 14.5946 12.9518 14.5946C12.9518 14.5946 13.0826 14.5946 13.2134 14.5946H15.045C15.1758 14.5946 15.3066 14.5946 15.3066 14.5946C15.3066 14.5946 15.4374 14.4595 15.4374 14.3243V5.40541ZM15.5683 2.02703C15.4374 1.89189 15.4374 1.62162 15.3066 1.62162C15.1758 1.48649 15.045 1.35135 14.7833 1.35135C14.6525 1.21622 14.3908 1.21622 14.26 1.21622C13.9984 1.21622 13.8675 1.21622 13.7367 1.35135C13.6059 1.48649 13.3442 1.48649 13.2134 1.62162C13.0826 1.62162 12.9518 1.89189 12.8209 2.02703C12.8209 2.16216 12.8209 2.43243 12.8209 2.56757C12.8209 2.97297 12.9518 3.37838 13.2134 3.64865C13.4751 3.91892 13.8675 4.05405 14.26 4.05405C14.6525 4.05405 15.045 3.91892 15.3066 3.64865C15.5683 3.37838 15.6991 3.10811 15.6991 2.56757C15.6991 2.43243 15.6991 2.16216 15.5683 2.02703ZM4.70973 8.37838L2.87817 2.2973C2.87817 2.16216 2.74734 2.16216 2.74734 2.02703C2.74734 2.02703 2.61652 1.89189 2.35486 1.89189H0.261652C0.130826 1.89189 0 1.89189 0 2.02703C0 2.02703 0 2.16216 0 2.2973L3.79395 13.7838C3.92478 14.0541 3.92477 14.1892 4.0556 14.3243C4.18643 14.4595 4.18643 14.5946 4.31725 14.5946C4.44808 14.7297 4.5789 14.7297 4.70973 14.7297C4.84056 14.7297 4.97138 14.7297 5.10221 14.7297H6.14881C6.27964 14.7297 6.41047 14.7297 6.54129 14.7297C6.67212 14.7297 6.80294 14.5946 6.93377 14.5946C7.0646 14.5946 7.06459 14.4595 7.19542 14.3243C7.32625 14.1892 7.32625 14.0541 7.45707 13.7838L11.251 2.2973V2.16216C11.251 2.02703 11.1202 2.02703 10.9894 2.02703H8.89616C8.76533 2.02703 8.6345 2.02703 8.6345 2.02703C8.50368 2.02703 8.50368 2.16216 8.50368 2.2973L6.54129 8.37838L5.62551 11.6216H5.49468L4.70973 8.37838Z" fill="white"/>
<path d="M154.113 8.51351C154.244 8.10811 154.374 7.83784 154.505 7.7027C154.636 7.43243 154.898 7.2973 155.159 7.2973C155.421 7.16216 155.683 7.16216 156.075 7.16216C156.206 7.16216 156.468 7.16216 156.729 7.16216C156.991 7.16216 157.253 7.2973 157.514 7.2973V12.1622C157.253 12.2973 156.991 12.2973 156.599 12.2973C156.337 12.2973 156.075 12.2973 155.944 12.2973C155.29 12.2973 154.898 12.1622 154.505 11.7568C154.113 11.3514 153.982 10.6757 153.982 9.72973C153.982 9.32432 153.982 8.91892 154.113 8.51351ZM160 6.21622C160 6.08108 160 5.94595 160 5.94595C160 5.81081 159.869 5.81081 159.738 5.67568C159.215 5.40541 158.561 5.27027 157.907 5.13514C157.253 5 156.599 5 155.944 5C155.159 5 154.505 5.13514 153.851 5.40541C153.328 5.67568 152.805 5.94595 152.412 6.48649C152.02 6.89189 151.758 7.43243 151.627 8.10811C151.496 8.64865 151.365 9.32432 151.365 10C151.365 10.6757 151.496 11.3514 151.627 11.8919C151.758 12.4324 152.02 12.973 152.412 13.3784C152.805 13.7838 153.197 14.0541 153.72 14.3243C154.244 14.5946 154.898 14.7297 155.552 14.7297C155.944 14.7297 156.206 14.7297 156.599 14.7297C156.991 14.7297 157.253 14.5946 157.645 14.4595V14.5946C157.645 15 157.514 15.2703 157.383 15.5405C157.253 15.8108 156.991 15.9459 156.729 16.0811C156.468 16.2162 156.206 16.3513 155.814 16.4865C155.552 16.6216 155.159 16.6216 154.898 16.7568C154.767 16.7568 154.767 16.7568 154.636 16.8919C154.636 16.8919 154.636 17.027 154.636 17.1622L154.898 18.9189C154.898 19.0541 154.898 19.0541 155.029 19.1892C155.029 19.1892 155.159 19.1892 155.29 19.1892C156.075 19.0541 156.729 18.9189 157.383 18.6486C158.038 18.3784 158.561 18.1081 158.953 17.7027C159.346 17.2973 159.738 16.7568 159.869 16.2162C160.131 15.6757 160.131 14.8649 160.131 14.0541V6.21622H160ZM145.871 7.16216C146.132 7.2973 146.394 7.43243 146.525 7.56757C146.656 7.7027 146.787 7.97297 146.917 8.24324C146.917 8.51351 147.048 8.91892 147.048 9.32432V14.1892C147.048 14.3243 147.048 14.4595 147.179 14.4595C147.179 14.4595 147.31 14.4595 147.441 14.4595H149.272C149.403 14.4595 149.534 14.4595 149.534 14.4595C149.534 14.4595 149.534 14.3243 149.534 14.1892V9.59459C149.534 8.78378 149.403 7.97297 149.272 7.43243C149.141 6.89189 148.749 6.35135 148.356 5.94595C147.964 5.54054 147.441 5.27027 146.917 5.13514C146.263 5 145.609 4.86486 144.824 4.86486C144.693 4.86486 144.432 4.86486 144.17 4.86486C143.908 4.86486 143.647 4.86486 143.385 4.86486C143.123 4.86486 142.862 4.86486 142.731 4.86486C142.469 4.86486 142.339 4.86486 142.208 4.86486C141.815 5 141.423 5.13514 141.292 5.40541C141.161 5.67568 141.03 5.94595 141.03 6.35135V14.1892C141.03 14.3243 141.03 14.4595 141.161 14.4595C141.161 14.4595 141.292 14.4595 141.423 14.4595H143.254C143.385 14.4595 143.516 14.4595 143.516 14.4595C143.516 14.4595 143.516 14.3243 143.516 14.1892V7.16216C143.778 7.16216 144.039 7.02703 144.17 7.02703C144.432 7.02703 144.563 7.02703 144.693 7.02703C145.347 7.02703 145.609 7.16216 145.871 7.16216ZM138.806 5.40541C138.806 5.27027 138.806 5.13514 138.675 5.13514C138.675 5.13514 138.545 5.13514 138.414 5.13514H136.582C136.451 5.13514 136.321 5.13514 136.321 5.13514C136.321 5.13514 136.19 5.27027 136.19 5.40541V14.3243C136.19 14.4595 136.19 14.5946 136.321 14.5946C136.321 14.5946 136.451 14.5946 136.582 14.5946H138.414C138.545 14.5946 138.675 14.5946 138.675 14.5946C138.675 14.5946 138.806 14.4595 138.806 14.3243V5.40541ZM138.937 2.02703C138.806 1.89189 138.806 1.62162 138.675 1.48649C138.545 1.35135 138.414 1.21622 138.152 1.21622C138.021 1.08108 137.76 1.08108 137.629 1.08108C137.367 1.08108 137.236 1.08108 137.105 1.21622C136.975 1.35135 136.713 1.35135 136.582 1.48649C136.451 1.62162 136.321 1.75676 136.321 2.02703C136.059 2.16216 136.059 2.43243 136.059 2.56757C136.059 2.97297 136.19 3.37838 136.451 3.64865C136.713 3.91892 137.105 4.05405 137.498 4.05405C137.89 4.05405 138.283 3.91892 138.545 3.64865C138.806 3.37838 138.937 2.97297 138.937 2.56757C138.937 2.43243 138.937 2.16216 138.937 2.02703ZM134.62 14.1892L134.358 12.7027C134.358 12.5676 134.227 12.4324 134.096 12.5676C133.966 12.5676 133.966 12.5676 133.835 12.5676C133.704 12.5676 133.573 12.5676 133.442 12.5676C133.312 12.5676 133.181 12.5676 133.05 12.5676C132.919 12.5676 132.788 12.5676 132.788 12.5676C132.396 12.5676 132.134 12.5676 132.003 12.4324C131.872 12.2973 131.742 12.027 131.742 11.7568V7.02703H133.704C133.835 7.02703 133.966 7.02703 133.966 6.89189C133.966 6.89189 133.966 6.75676 133.966 6.62162V5.40541C133.966 5.27027 133.966 5.27027 133.966 5.13514C133.966 5.13514 133.835 5 133.704 5H131.742V2.7027C131.742 2.56757 131.742 2.43243 131.611 2.43243C131.611 2.43243 131.48 2.43243 131.349 2.43243L129.779 2.97297C129.648 2.97297 129.518 3.10811 129.518 3.10811C129.518 3.10811 129.387 3.24324 129.387 3.37838L129.256 5.13514L127.948 5.40541C127.817 5.40541 127.686 5.54054 127.686 5.54054C127.686 5.54054 127.686 5.67568 127.686 5.81081V6.75676C127.686 6.89189 127.686 6.89189 127.686 7.02703C127.686 7.02703 127.817 7.16216 127.948 7.16216H129.125V12.2973C129.125 13.1081 129.387 13.7838 129.779 14.1892C130.172 14.5946 130.957 14.8649 132.003 14.8649C132.265 14.8649 132.657 14.8649 133.05 14.8649C133.442 14.8649 133.966 14.7297 134.358 14.5946C134.489 14.5946 134.489 14.4595 134.489 14.4595C134.751 14.3243 134.751 14.3243 134.62 14.1892ZM127.424 12.8378C127.424 12.7027 127.424 12.7027 127.294 12.7027C127.294 12.7027 127.163 12.7027 127.032 12.7027C126.901 12.7027 126.901 12.7027 126.77 12.7027C126.639 12.7027 126.509 12.7027 126.378 12.7027C126.116 12.7027 125.985 12.7027 125.854 12.5676C125.724 12.4324 125.724 12.1622 125.724 11.8919V1.75676C125.724 1.62162 125.724 1.48649 125.593 1.48649C125.593 1.48649 125.462 1.48649 125.331 1.48649H123.5C123.369 1.48649 123.238 1.48649 123.238 1.48649C123.238 1.48649 123.107 1.62162 123.107 1.75676V12.4324C123.107 12.973 123.107 13.3784 123.238 13.6486C123.369 13.9189 123.5 14.1892 123.63 14.4595C123.761 14.5946 124.023 14.7297 124.285 14.8649C124.808 14.8649 125.2 14.8649 125.593 14.8649C125.854 14.8649 126.116 14.8649 126.509 14.8649C126.901 14.8649 127.163 14.7297 127.424 14.5946C127.555 14.5946 127.686 14.4595 127.686 14.4595C127.686 14.4595 127.686 14.3243 127.686 14.1892L127.424 12.8378ZM116.304 12.5676C116.043 12.4324 115.781 12.2973 115.65 12.1622C115.519 12.027 115.388 11.7568 115.388 11.3513C115.388 11.0811 115.258 10.6757 115.258 10.2703V5.40541C115.258 5.13514 115.127 5 114.865 5H113.034C112.903 5 112.772 5 112.772 5.13514C112.772 5.13514 112.772 5.27027 112.772 5.40541V10.1351C112.772 10.9459 112.903 11.7568 113.034 12.2973C113.164 12.8378 113.426 13.3784 113.818 13.7838C114.211 14.1892 114.603 14.4595 115.258 14.5946C115.912 14.7297 116.566 14.8649 117.351 14.8649C117.482 14.8649 117.743 14.8649 118.005 14.8649C118.267 14.8649 118.528 14.8649 118.659 14.8649C118.921 14.8649 119.182 14.8649 119.313 14.8649C119.575 14.8649 119.706 14.8649 119.836 14.7297C120.229 14.5946 120.491 14.4595 120.752 14.1892C120.883 13.9189 121.014 13.6486 121.014 13.2432V5.40541C121.014 5.13514 120.883 5 120.621 5H118.79C118.659 5 118.528 5 118.528 5.13514C118.528 5.13514 118.528 5.27027 118.528 5.40541V12.5676C118.267 12.5676 118.005 12.5676 117.874 12.7027C117.612 12.7027 117.482 12.7027 117.351 12.7027C116.958 12.7027 116.566 12.7027 116.304 12.5676ZM110.94 10.8108C110.809 10.5405 110.548 10.1351 110.286 10C110.025 9.72973 109.632 9.59459 109.37 9.32432C108.978 9.18919 108.585 8.91892 108.193 8.78378C107.67 8.51351 107.277 8.37838 107.016 8.24324C106.754 8.10811 106.754 7.83784 106.754 7.7027C106.754 7.56757 106.885 7.43243 107.016 7.2973C107.146 7.16216 107.408 7.02703 107.67 7.02703C108.062 7.02703 108.455 7.02703 108.847 7.16216C109.24 7.2973 109.632 7.2973 110.025 7.43243C110.155 7.43243 110.286 7.43243 110.286 7.43243C110.286 7.43243 110.417 7.2973 110.417 7.16216L110.809 5.94595C110.809 5.81081 110.809 5.67568 110.809 5.67568C110.809 5.67568 110.679 5.54054 110.548 5.54054C110.155 5.27027 109.632 5.13514 109.109 5.13514C108.585 5 108.062 5 107.539 5C107.016 5 106.492 5.13514 105.969 5.27027C105.576 5.40541 105.184 5.67568 104.922 5.94595C104.661 6.21622 104.399 6.48649 104.268 6.89189C104.137 7.2973 104.007 7.56757 104.007 7.97297C104.007 8.37838 104.007 8.64865 104.137 8.91892C104.399 9.05405 104.661 9.32432 104.791 9.45946C105.053 9.72973 105.315 9.86486 105.707 10.1351C106.1 10.2703 106.492 10.5405 106.885 10.6757C107.408 10.9459 107.931 11.0811 108.062 11.2162C108.455 11.4865 108.585 11.6216 108.585 11.8919C108.585 12.1622 108.455 12.2973 108.324 12.4324C108.193 12.5676 107.8 12.7027 107.408 12.7027C107.277 12.7027 107.016 12.7027 106.754 12.7027C106.492 12.7027 106.231 12.5676 105.969 12.5676C105.707 12.5676 105.446 12.4324 105.184 12.2973C105.184 12.1622 104.922 12.1622 104.791 12.027C104.661 12.027 104.53 11.8919 104.53 12.027C104.53 12.027 104.399 12.1622 104.399 12.2973L103.745 13.5135C103.745 13.6486 103.614 13.7838 103.745 13.7838L103.876 13.9189C104.399 14.1892 104.922 14.4595 105.707 14.5946C106.361 14.7297 107.016 14.8649 107.67 14.8649C108.716 14.8649 109.632 14.5946 110.286 14.1892C110.94 13.6486 111.333 12.973 111.333 12.027C111.202 11.4865 111.202 11.0811 110.94 10.8108ZM98.5118 7.16216C98.7735 7.2973 99.0351 7.43243 99.166 7.56757C99.2968 7.83784 99.4276 8.10811 99.4276 8.37838C99.4276 8.64865 99.5584 9.05405 99.5584 9.45946V14.3243C99.5584 14.4595 99.5584 14.5946 99.6893 14.5946C99.6893 14.5946 99.8201 14.5946 99.9509 14.5946H101.782C101.913 14.5946 102.044 14.5946 102.044 14.5946C102.044 14.5946 102.044 14.4595 102.044 14.3243V9.59459C102.044 8.78378 101.913 7.97297 101.782 7.43243C101.652 6.89189 101.259 6.35135 100.867 5.94595C100.474 5.54054 99.9509 5.27027 99.4276 5.13514C98.7735 5 98.1194 4.86486 97.3344 4.86486C97.2036 4.86486 96.9419 4.86486 96.6803 4.86486C96.4186 4.86486 96.157 4.86486 95.8953 4.86486C95.6337 4.86486 95.372 4.86486 95.2412 4.86486C94.9795 4.86486 94.8487 4.86486 94.7179 4.86486C94.3254 5 93.9329 5.13514 93.8021 5.40541C93.6713 5.67568 93.5405 5.94595 93.5405 6.35135V14.1892C93.5405 14.3243 93.5405 14.4595 93.6713 14.4595C93.6713 14.4595 93.8021 14.4595 93.9329 14.4595H95.7645C95.8953 14.4595 96.0262 14.4595 96.0262 14.4595C96.0262 14.4595 96.0262 14.3243 96.0262 14.1892V7.16216C96.2878 7.16216 96.5495 7.02703 96.6803 7.02703C96.9419 7.02703 97.0728 7.02703 97.2036 7.02703C97.8577 7.02703 98.2502 7.16216 98.5118 7.16216ZM89.0924 10.9459C89.0924 11.2162 88.9616 11.6216 88.8307 11.7568C88.6999 12.027 88.4383 12.1622 88.3074 12.2973C88.0458 12.4324 87.7841 12.5676 87.5225 12.5676C86.8683 12.5676 86.4759 12.2973 86.2142 11.8919C85.9526 11.4865 85.8217 10.6757 85.8217 9.86486C85.8217 9.05405 85.9526 8.37838 86.2142 7.83784C86.4759 7.2973 86.9992 7.16216 87.6533 7.16216C88.0458 7.16216 88.3074 7.2973 88.4382 7.43243C88.6999 7.56757 88.8307 7.7027 88.9616 7.97297C88.9616 8.10811 89.0924 8.37838 89.0924 8.78378C89.0924 9.18919 89.2232 9.45946 89.2232 9.86486C89.2232 10.2703 89.2232 10.6757 89.0924 10.9459ZM90.7931 6.21622C90.0082 5.40541 88.9616 4.86486 87.5225 4.86486C86.8683 4.86486 86.2142 5 85.6909 5.27027C85.0368 5.40541 84.5135 5.81081 84.2518 6.21622C83.8593 6.62162 83.5977 7.16216 83.336 7.83784C83.0744 8.51351 83.0744 9.18919 83.0744 10C83.0744 11.6216 83.4669 12.8378 84.121 13.6486C84.7751 14.4595 85.9526 15 87.5225 15C89.0924 15 90.139 14.5946 90.9239 13.6486C91.7089 12.8378 91.9706 11.4865 91.9706 10C91.8397 8.24324 91.5781 7.02703 90.7931 6.21622ZM76.5331 12.027C76.1406 11.8919 75.879 11.6216 75.6173 11.2162C75.3557 10.8108 75.2248 10.4054 75.094 10C74.9632 9.45946 74.9632 8.91892 74.9632 8.37838C74.9632 7.83784 74.9632 7.2973 75.094 6.75676C75.2248 6.21622 75.3557 5.81081 75.6173 5.40541C75.879 5 76.1406 4.72973 76.5331 4.59459C76.9256 4.32432 77.3181 4.32432 77.8414 4.32432C78.2338 4.32432 78.6263 4.32432 79.0188 4.45946C79.4113 4.59459 79.8037 4.59459 80.1962 4.86486C80.327 4.86486 80.4579 5 80.5887 4.86486C80.5887 4.86486 80.7195 4.72973 80.7195 4.59459L81.2428 3.37838C81.3737 3.10811 81.3737 2.97297 81.3737 2.97297C81.3737 2.83784 81.2428 2.83784 81.112 2.7027C80.5887 2.43243 79.9346 2.16216 79.4113 2.02703C78.888 1.89189 78.2338 1.89189 77.7105 1.89189C76.9256 1.89189 76.1406 2.02703 75.3557 2.2973C74.7015 2.56757 74.0474 3.10811 73.5241 3.64865C73.0008 4.18919 72.6083 4.86486 72.3467 5.67568C72.085 6.48649 71.9542 7.43243 71.9542 8.37838C71.9542 9.32432 72.085 10.2703 72.2158 11.0811C72.4775 11.8919 72.7391 12.5676 73.2625 13.1081C73.6549 13.6486 74.3091 14.0541 74.9632 14.3243C75.6173 14.5946 76.5331 14.7297 77.4489 14.7297C78.103 14.7297 78.7571 14.5946 79.5421 14.4595C80.1962 14.3243 80.8504 14.0541 81.5045 13.6486C81.6353 13.6486 81.6353 13.5135 81.6353 13.3784C81.6353 13.2432 81.6353 13.1081 81.5045 12.973L80.8504 11.6216C80.8504 11.4865 80.7195 11.3513 80.7195 11.3513C80.5887 11.3513 80.5887 11.3513 80.327 11.3513C79.9346 11.4865 79.5421 11.6216 79.1496 11.7568C78.7571 11.8919 78.2338 12.027 77.7105 12.027C77.4489 12.2973 76.9256 12.2973 76.5331 12.027Z" fill="white"/>
<path d="M64.2355 8.10811L65.9362 6.48649L67.3753 8.10811L71.5617 0L63.3197 3.37838L64.7588 5L63.058 6.48649L57.825 0.27027C57.5634 0 57.1709 0 56.9092 0C56.5167 0.135135 56.2551 0.405405 56.2551 0.675676L52.1995 16.6216L50.4988 18.2432C50.1063 18.6487 50.1063 19.1892 50.3679 19.5946C50.4988 19.8649 50.7604 19.8649 51.0221 19.8649C51.2837 19.8649 51.4145 19.7297 51.6762 19.5946L53.5078 17.8378L68.6835 15.5405C69.076 15.5405 69.3377 15.2703 69.4685 14.8649C69.5993 14.5946 69.4685 14.1892 69.3377 13.9189L64.2355 8.10811ZM57.5634 2.97297L61.619 7.83784L54.6852 14.1892L57.5634 2.97297ZM55.9934 15.6757L62.7964 9.32433L66.7212 13.9189L55.9934 15.6757Z" fill="white"/>
</g>
<defs>
<clipPath id="clip0">
<rect width="160" height="20" fill="white"/>
</clipPath>
</defs>
</svg>
