<svg width="20" height="21" viewBox="0 0 20 21" fill="none" xmlns="http://www.w3.org/2000/svg">
<circle cx="8.33333" cy="8.33333" r="6.83333" stroke="white" stroke-width="3"/>
<line x1="17.8804" y1="18.6656" x2="12.5864" y2="13.7862" stroke="white" stroke-width="3" stroke-linecap="round" stroke-linejoin="round"/>
</svg>
